2003.04.11 15:08 B D:\jnanam webpage\shastra\khukuri\jp\Ivory_gripped_officers_models.jpg --> ftp.jnanam.net /var/www/html/shastra/khukuri/jp Ivory_gripped_officers_models.jpg
2003.04.14 15:43 B D:\jnanam webpage\shastra\khukuri\jp\sale01.html --> ftp.jnanam.net /var/www/html/shastra/khukuri/jp sale01.html
2003.04.14 15:44 B D:\jnanam webpage\shastra\khukuri\jp\group_2_for_sale_2nd_reshoot.jpg --> ftp.jnanam.net /var/www/html/shastra/khukuri/jp group_2_for_sale_2nd_reshoot.jpg
2003.04.14 15:44 B D:\jnanam webpage\shastra\khukuri\jp\background.jpg --> ftp.jnanam.net /var/www/html/shastra/khukuri/jp background.jpg
2003.04.15 00:14 B D:\jnanam webpage\shastra\khukuri\jp\sale01.html --> ftp.jnanam.net /var/www/html/shastra/khukuri/jp sale01.html
2003.04.15 00:15 B D:\jnanam webpage\shastra\khukuri\jp\test_for_Ben.jpg --> ftp.jnanam.net /var/www/html/shastra/khukuri/jp test_for_Ben.jpg
2003.04.16 22:18 B D:\jnanam webpage\shastra\khukuri\jp\sale01.html --> ftp.jnanam.net /var/www/html/shastra/khukuri/jp sale01.html
2003.04.16 22:21 B D:\jnanam webpage\shastra\khukuri\jp\sale01.html --> ftp.jnanam.net /var/www/html/shastra/khukuri/jp sale01.html
2003.04.17 13:12 B D:\jnanam webpage\shastra\khukuri\jp\1815Sisneyri.jpg --> ftp.jnanam.net /var/www/html/shastra/khukuri/jp 1815Sisneyri.jpg
2003.04.17 13:12 B D:\jnanam webpage\shastra\khukuri\jp\sale01.html --> ftp.jnanam.net /var/www/html/shastra/khukuri/jp sale01.html
