2003.02.24 18:23 B D:\jnanam webpage\shastra\khukuri\hi\bas-cho.jpg <-- slade /home/slade/public_html/khuk/hi bas-cho.jpg
2003.02.24 18:23 B D:\jnanam webpage\shastra\khukuri\hi\bas-durba-mark_sword-of-shiva.jpg <-- slade /home/slade/public_html/khuk/hi bas-durba-mark_sword-of-shiva.jpg
2003.02.24 18:23 B D:\jnanam webpage\shastra\khukuri\hi\bas-handle.jpg <-- slade /home/slade/public_html/khuk/hi bas-handle.jpg
2003.02.24 18:23 B D:\jnanam webpage\shastra\khukuri\hi\bas-HI_nagari.jpg <-- slade /home/slade/public_html/khuk/hi bas-HI_nagari.jpg
2003.02.24 18:23 B D:\jnanam webpage\shastra\khukuri\hi\bas-horngrain.jpg <-- slade /home/slade/public_html/khuk/hi bas-horngrain.jpg
2003.02.24 18:23 B D:\jnanam webpage\shastra\khukuri\hi\bas-kali.jpg <-- slade /home/slade/public_html/khuk/hi bas-kali.jpg
2003.02.24 18:23 B D:\jnanam webpage\shastra\khukuri\hi\bas-sheath-tooling.jpg <-- slade /home/slade/public_html/khuk/hi bas-sheath-tooling.jpg
2003.02.24 18:23 B D:\jnanam webpage\shastra\khukuri\hi\bas-sheathed-khuk+cricket-ball.jpg <-- slade /home/slade/public_html/khuk/hi bas-sheathed-khuk+cricket-ball.jpg
2003.02.24 18:23 B D:\jnanam webpage\shastra\khukuri\hi\bas-unsheathed-khuk+bits.jpg <-- slade /home/slade/public_html/khuk/hi bas-unsheathed-khuk+bits.jpg
2003.02.24 18:23 B D:\jnanam webpage\shastra\khukuri\hi\HI-AK01.jpg <-- slade /home/slade/public_html/khuk/hi HI-AK01.jpg
2003.02.24 18:24 B D:\jnanam webpage\shastra\khukuri\hi\HI-AK02.jpg <-- slade /home/slade/public_html/khuk/hi HI-AK02.jpg
2003.02.24 18:24 B D:\jnanam webpage\shastra\khukuri\hi\HI-AK03.jpg <-- slade /home/slade/public_html/khuk/hi HI-AK03.jpg
2003.02.24 18:24 B D:\jnanam webpage\shastra\khukuri\hi\HI-AK04.jpg <-- slade /home/slade/public_html/khuk/hi HI-AK04.jpg
2003.02.24 18:24 B D:\jnanam webpage\shastra\khukuri\hi\HI-AK05.jpg <-- slade /home/slade/public_html/khuk/hi HI-AK05.jpg
2003.02.24 18:24 B D:\jnanam webpage\shastra\khukuri\hi\HI-AK06.jpg <-- slade /home/slade/public_html/khuk/hi HI-AK06.jpg
2003.02.24 18:24 B D:\jnanam webpage\shastra\khukuri\hi\HI-AK07.jpg <-- slade /home/slade/public_html/khuk/hi HI-AK07.jpg
2003.02.24 18:24 B D:\jnanam webpage\shastra\khukuri\hi\HI-AK08.jpg <-- slade /home/slade/public_html/khuk/hi HI-AK08.jpg
2003.02.24 18:24 B D:\jnanam webpage\shastra\khukuri\hi\hi-garud-01.jpg <-- slade /home/slade/public_html/khuk/hi hi-garud-01.jpg
2003.02.24 18:24 B D:\jnanam webpage\shastra\khukuri\hi\hi-garud-02.jpg <-- slade /home/slade/public_html/khuk/hi hi-garud-02.jpg
2003.02.24 18:24 B D:\jnanam webpage\shastra\khukuri\hi\hi-garud-03.jpg <-- slade /home/slade/public_html/khuk/hi hi-garud-03.jpg
2003.02.24 18:24 B D:\jnanam webpage\shastra\khukuri\hi\hi-hanm43-2.jpg <-- slade /home/slade/public_html/khuk/hi hi-hanm43-2.jpg
2003.02.24 18:24 B D:\jnanam webpage\shastra\khukuri\hi\hi-hanm43-3.jpg <-- slade /home/slade/public_html/khuk/hi hi-hanm43-3.jpg
2003.02.24 18:24 B D:\jnanam webpage\shastra\khukuri\hi\hi-hanm43-4.jpg <-- slade /home/slade/public_html/khuk/hi hi-hanm43-4.jpg
2003.02.24 18:24 B D:\jnanam webpage\shastra\khukuri\hi\hi-hanm43-5.jpg <-- slade /home/slade/public_html/khuk/hi hi-hanm43-5.jpg
2003.02.24 18:25 B D:\jnanam webpage\shastra\khukuri\hi\Reg-Dhan-all.jpg <-- slade /home/slade/public_html/khuk/hi Reg-Dhan-all.jpg
2003.02.24 18:25 B D:\jnanam webpage\shastra\khukuri\hi\Reg-Dhan-cho-Buramark.jpg <-- slade /home/slade/public_html/khuk/hi Reg-Dhan-cho-Buramark.jpg
2003.02.24 18:25 B D:\jnanam webpage\shastra\khukuri\hi\Reg-Dhan-dragon.jpg <-- slade /home/slade/public_html/khuk/hi Reg-Dhan-dragon.jpg
2003.02.24 18:25 B D:\jnanam webpage\shastra\khukuri\hi\Reg-Dhan-fish.jpg <-- slade /home/slade/public_html/khuk/hi Reg-Dhan-fish.jpg
2003.02.24 18:25 B D:\jnanam webpage\shastra\khukuri\hi\Reg-Dhan-karda-chakma.jpg <-- slade /home/slade/public_html/khuk/hi Reg-Dhan-karda-chakma.jpg
2003.02.24 18:25 B D:\jnanam webpage\shastra\khukuri\hi\Reg-Dhan-sheathed-back.jpg <-- slade /home/slade/public_html/khuk/hi Reg-Dhan-sheathed-back.jpg
2003.02.24 18:25 B D:\jnanam webpage\shastra\khukuri\hi\Reg-Dhan-sheathed-front.jpg <-- slade /home/slade/public_html/khuk/hi Reg-Dhan-sheathed-front.jpg
2003.02.24 18:25 B D:\jnanam webpage\shastra\khukuri\hi\Reg-Dhan-silver-Nepal01.jpg <-- slade /home/slade/public_html/khuk/hi Reg-Dhan-silver-Nepal01.jpg
2003.02.24 18:26 B D:\jnanam webpage\shastra\khukuri\hi\bas-cho.jpg --> ftp.jnanam.net /var/www/html/shastra/khukuri/hi bas-cho.jpg
2003.02.24 18:27 B D:\jnanam webpage\shastra\khukuri\hi\bas-durba-mark_sword-of-shiva.jpg --> ftp.jnanam.net /var/www/html/shastra/khukuri/hi bas-durba-mark_sword-of-shiva.jpg
2003.02.24 18:28 B D:\jnanam webpage\shastra\khukuri\hi\bas-handle.jpg --> ftp.jnanam.net /var/www/html/shastra/khukuri/hi bas-handle.jpg
2003.02.24 18:28 B D:\jnanam webpage\shastra\khukuri\hi\bas-HI_nagari.jpg --> ftp.jnanam.net /var/www/html/shastra/khukuri/hi bas-HI_nagari.jpg
2003.02.24 18:28 B D:\jnanam webpage\shastra\khukuri\hi\bas-horngrain.jpg --> ftp.jnanam.net /var/www/html/shastra/khukuri/hi bas-horngrain.jpg
2003.02.24 18:29 B D:\jnanam webpage\shastra\khukuri\hi\bas-kali.jpg --> ftp.jnanam.net /var/www/html/shastra/khukuri/hi bas-kali.jpg
2003.02.24 18:29 B D:\jnanam webpage\shastra\khukuri\hi\bas-sheath-tooling.jpg --> ftp.jnanam.net /var/www/html/shastra/khukuri/hi bas-sheath-tooling.jpg
2003.02.24 18:30 B D:\jnanam webpage\shastra\khukuri\hi\bas-sheathed-khuk+cricket-ball.jpg --> ftp.jnanam.net /var/www/html/shastra/khukuri/hi bas-sheathed-khuk+cricket-ball.jpg
2003.02.24 18:30 B D:\jnanam webpage\shastra\khukuri\hi\bas-unsheathed-khuk+bits.jpg --> ftp.jnanam.net /var/www/html/shastra/khukuri/hi bas-unsheathed-khuk+bits.jpg
2003.02.24 18:30 B D:\jnanam webpage\shastra\khukuri\hi\hi-hanm43-2.jpg --> ftp.jnanam.net /var/www/html/shastra/khukuri/hi hi-hanm43-2.jpg
2003.02.24 18:30 B D:\jnanam webpage\shastra\khukuri\hi\hi-hanm43-3.jpg --> ftp.jnanam.net /var/www/html/shastra/khukuri/hi hi-hanm43-3.jpg
2003.02.24 18:31 B D:\jnanam webpage\shastra\khukuri\hi\hi-hanm43-4.jpg --> ftp.jnanam.net /var/www/html/shastra/khukuri/hi hi-hanm43-4.jpg
2003.02.24 18:31 B D:\jnanam webpage\shastra\khukuri\hi\hi-hanm43-5.jpg --> ftp.jnanam.net /var/www/html/shastra/khukuri/hi hi-hanm43-5.jpg
